disp	t01_tomo	t01_spheres	t01_spheres_pack	t01_spheres_rea00	t01_spheres_rea01	t01_spheres_rea02	t01_spheres_rea03	t01_spheres_rea04	t01_spheres_rea05	t01_spheres_rea06	t01_spheres_rea07	t01_spheres_rea08	t01_spheres_rea09
0.00	0.00	0.00	0.00	0.00	0.00	0.00	0.00	0.00	0.00	0.00	0.00	0.00	0.00
0.01	0.17	0.16	0.17	0.17	0.17	0.17	0.17	0.17	0.17	0.17	0.17	0.17	0.17
0.01	0.34	0.31	0.33	0.33	0.33	0.34	0.34	0.33	0.34	0.33	0.34	0.33	0.33
0.02	0.52	0.47	0.50	0.50	0.50	0.50	0.50	0.50	0.50	0.50	0.51	0.50	0.50
0.02	0.69	0.62	0.67	0.67	0.67	0.67	0.67	0.67	0.67	0.67	0.67	0.67	0.67
0.03	0.86	0.78	0.83	0.83	0.84	0.84	0.84	0.83	0.84	0.84	0.84	0.83	0.84
0.03	1.03	0.93	1.00	1.00	1.00	1.01	1.01	1.00	1.01	1.00	1.01	1.00	1.00
0.04	1.20	1.09	1.16	1.16	1.17	1.18	1.18	1.17	1.18	1.17	1.18	1.17	1.17
0.04	1.37	1.24	1.33	1.33	1.34	1.35	1.34	1.33	1.34	1.34	1.35	1.33	1.34
0.05	1.55	1.40	1.50	1.49	1.51	1.51	1.51	1.50	1.51	1.51	1.51	1.50	1.51
0.05	1.72	1.55	1.66	1.66	1.66	1.68	1.68	1.66	1.68	1.67	1.69	1.67	1.67
0.06	1.89	1.71	1.82	1.82	1.82	1.84	1.83	1.83	1.84	1.84	1.85	1.83	1.84
0.06	2.06	1.86	1.99	1.98	1.99	2.00	2.00	1.99	2.01	2.00	2.02	1.99	2.01
0.07	2.23	2.02	2.14	2.13	2.14	2.16	2.14	2.15	2.17	2.17	2.16	2.14	2.16
0.07	2.40	2.17	2.29	2.26	2.27	2.31	2.29	2.30	2.32	2.32	2.33	2.31	2.33
0.08	2.57	2.32	2.45	2.32	2.25	2.43	2.40	2.42	2.48	2.48	2.49	2.46	2.48
0.08	2.74	2.48	2.55	1.98	2.03	2.45	2.34	2.45	2.62	2.64	2.63	2.51	2.62
0.09	2.90	2.63	2.61	0.63	0.97	1.93	1.44	2.03	2.65	2.68	2.72	2.17	2.73
0.09	3.06	2.77	2.25	0.04	0.02	0.26	0.19	0.63	2.31	2.64	2.45	1.02	2.55
0.10	3.20	2.91	0.43	0.01	0.03	0.01	0.07	0.02	0.57	0.75	1.24	0.13	1.34
0.11	3.22	3.05	0.03	0.01	0.01	0.00	0.03	0.01	0.17	0.13	0.25	0.02	0.34
0.11	2.96	3.17	0.02	0.01	0.01	0.00	0.03	0.01	0.10	0.08	0.17	0.01	0.21
0.12	2.11	3.19	0.01	0.01	0.00	0.00	0.02	0.00	0.03	0.03	0.10	0.00	0.09
0.12	1.44	3.00	0.01	0.01	0.00	0.00	0.02	0.00	0.04	0.02	0.08	0.00	0.10
0.13	0.84	2.35	0.00	0.01	0.00	0.00	0.01	0.00	0.02	0.01	0.07	0.00	0.09
0.13	0.67	1.33	0.00	0.01	0.00	0.00	0.01	0.00	0.02	0.01	0.07	0.00	0.08
0.14	0.54	0.84	-0.01	0.01	0.00	0.00	0.01		0.02	0.01	0.07	0.00	0.06
0.14	0.43	0.65	0.00	0.00	0.00	0.00			0.02		0.07	0.00	0.07
0.15	0.41	0.58	0.00	0.00	0.00								0.06
0.15	0.35	0.55	0.00										
0.16	0.34	0.48	0.00										
0.16	0.28	0.46											
0.17	0.28	0.42											
0.17	0.21												
0.18	0.28												
0.18	0.21												
0.19	0.22												
0.19	0.23												
0.20	0.18												
0.21	0.21												
0.21	0.21												
0.22	0.16												
0.22	0.19												
0.23	0.20												
0.23	0.15												
0.24	0.18												
0.24	0.19												
0.25	0.16												
0.25	0.16												
0.26	0.17												
0.26	0.16												