disp	c01_tomo	c01_spheres	c01_spheres_pack	c01_spheres_rea00	c01_spheres_rea01	c01_spheres_rea02	c01_spheres_rea03	c01_spheres_rea04	c01_spheres_rea05	c01_spheres_rea06	c01_spheres_rea07	c01_spheres_rea08	c01_spheres_rea09	c01_spheres (soft aggregates)
0.00	0.00	0.00	0.00	0.00	0.00	0.00	0.00	0.00	0.00	0.00	0.00	0.00	0.00	0.00
0.05	1.66	1.46	1.69	1.67	1.67	1.68	1.70	1.69	1.69	1.69	1.69	1.66	1.67	1.54
0.10	3.32	2.92	3.37	3.33	3.35	3.36	3.40	3.38	3.38	3.39	3.39	3.32	3.34	3.09
0.15	4.98	4.38	5.06	5.00	5.02	5.04	5.10	5.07	5.07	5.08	5.08	4.98	5.01	4.63
0.20	6.64	5.84	6.75	6.67	6.69	6.72	6.79	6.76	6.76	6.78	6.78	6.64	6.68	6.17
0.25	8.30	7.31	8.44	8.33	8.37	8.40	8.49	8.44	8.45	8.47	8.47	8.29	8.35	7.72
0.30	9.96	8.77	10.12	10.00	10.04	10.08	10.19	10.13	10.13	10.17	10.17	9.95	10.02	9.26
0.35	11.62	10.23	11.81	11.67	11.71	11.76	11.89	11.82	11.82	11.86	11.86	11.61	11.68	10.81
0.40	13.28	11.68	13.50	13.32	13.38	13.44	13.59	13.51	13.51	13.55	13.55	13.27	13.35	12.35
0.45	14.94	13.14	15.18	14.98	15.05	15.12	15.28	15.19	15.19	15.24	15.25	14.92	15.01	13.89
0.50	16.58	14.58	16.86	16.63	16.71	16.80	16.98	16.87	16.87	16.93	16.93	16.58	16.67	15.42
0.55	18.20	16.02	18.52	18.26	18.37	18.47	18.67	18.54	18.54	18.59	18.62	18.22	18.33	16.95
0.60	19.83	17.45	20.16	19.88	20.02	20.13	20.35	20.18	20.20	20.26	20.29	19.85	19.98	18.49
0.65	21.41	18.85	21.76	21.49	21.66	21.77	22.00	21.72	21.84	21.90	21.89	21.47	21.60	20.01
0.70	22.91	20.17	23.29	23.05	23.28	23.40	23.63	23.13	23.46	23.47	23.34	23.04	23.21	21.53
0.75	24.35	21.37	24.72	24.50	24.84	25.00	25.17	24.49	25.03	24.98	24.69	24.56	24.75	23.02
0.80	25.61	22.29	26.15	25.93	26.28	26.53	26.59	25.79	26.49	26.42	25.86	25.93	26.25	24.41
0.85	26.69	23.11	27.56	27.15	27.67	28.02	27.85	27.01	27.73	27.69	26.89	27.24	27.66	25.70
0.90	27.47	23.65	28.78	28.13	28.94	29.39	28.95	28.11	28.91	28.83	27.73	28.38	28.90	26.84
0.95	27.88	23.87	29.72	28.94	29.98	30.62	29.61	29.03	29.77	29.69	28.13	29.26	30.01	27.70
1.00	28.01	23.61	30.47	29.53	30.73	31.58	30.22	29.92	30.20	30.09	28.36	30.06	30.75	28.08
1.05	27.69	23.13	31.09	30.04	31.07	32.14	30.61	30.61	30.37	30.40	28.13	30.24	31.52	28.22
1.10	27.43	22.28	31.37	30.16	31.32	32.60	30.69	31.04	30.26	30.29	27.50	30.36	31.93	27.88
1.15	26.99	21.02	31.40	30.06	30.98	32.80	30.71	31.12	29.97	29.93	26.52	30.35	32.02	27.22
1.20	26.61	18.79	31.30	29.34	30.03	32.55	30.45	31.19	29.43	29.53	25.63	29.97	31.42	25.95
1.25	26.09	15.97	30.64	28.36	28.22	31.86	29.99	30.62	28.47	29.01	25.63	29.30	30.66	24.40
1.30	25.55	13.35	29.85	26.42	26.37	30.50	29.30	30.62	26.95	29.01	25.63	27.91	30.66	22.29
1.35	24.95	13.35	28.75	23.75	26.37	30.50	28.21	30.62	26.95	29.01	25.63	27.91	30.66	19.64
1.40	24.20	13.35	27.01	23.75	26.37	30.50	28.21	30.62	26.95	29.01	25.63	27.91	30.66	17.43
1.45	23.30	13.35	25.34	23.75	26.37	30.50	28.21	30.62	26.95	29.01	25.63	27.91	30.66	15.60
1.50	22.64	13.35	25.34	23.75	26.37	30.50	28.21	30.62	26.95	29.01	25.63	27.91	30.66	14.48
1.55	21.82	13.35	25.34	23.75	26.37	30.50	28.21	30.62	26.95	29.01	25.63	27.91	30.66	13.42
1.60	21.22	13.35	25.34	23.75	26.37	30.50	28.21	30.62	26.95	29.01	25.63	27.91	30.66	13.42
1.65	20.38	13.35	25.34	23.75	26.37	30.50	28.21	30.62	26.95	29.01	25.63	27.91	30.66	13.42
1.70	19.85	13.35	25.34	23.75	26.37	30.50	28.21	30.62	26.95	29.01	25.63	27.91	30.66	13.42
1.75	18.72	13.35	25.34	23.75	26.37	30.50	28.21	30.62	26.95	29.01	25.63	27.91	30.66	13.42
1.80	18.08	13.35	25.34	23.75	26.37	30.50	28.21	30.62	26.95	29.01	25.63	27.91	30.66	13.42
1.85	17.33	13.35	25.34	23.75	26.37	30.50	28.21	30.62	26.95	29.01	25.63	27.91	30.66	13.42
1.90	16.17	13.35	25.34	23.75	26.37	30.50	28.21	30.62	26.95	29.01	25.63	27.91	30.66	13.42
1.95	15.39	13.35	25.34	23.75	26.37	30.50	28.21	30.62	26.95	29.01	25.63	27.91	30.66	13.42
2.00	14.20	13.35	25.34	23.75	26.37	30.50	28.21	30.62	26.95	29.01	25.63	27.91	30.66	13.42
2.05	13.01	13.35	25.34	23.75	26.37	30.50	28.21	30.62	26.95	29.01	25.63	27.91	30.66	13.42
2.10	11.97	13.35	25.34	23.75	26.37	30.50	28.21	30.62	26.95	29.01	25.63	27.91	30.66	13.42
2.15	10.87	13.35	25.34	23.75	26.37	30.50	28.21	30.62	26.95	29.01	25.63	27.91	30.66	13.42
2.20	10.18	13.35	25.34	23.75	26.37	30.50	28.21	30.62	26.95	29.01	25.63	27.91	30.66	13.42
2.25	9.00	13.35	25.34	23.75	26.37	30.50	28.21	30.62	26.95	29.01	25.63	27.91	30.66	13.42
2.30	8.25	13.35	25.34	23.75	26.37	30.50	28.21	30.62	26.95	29.01	25.63	27.91	30.66	13.42
2.35	7.20	13.35	25.34	23.75	26.37	30.50	28.21	30.62	26.95	29.01	25.63	27.91	30.66	13.42
2.40	6.73	13.35	25.34	23.75	26.37	30.50	28.21	30.62	26.95	29.01	25.63	27.91	30.66	13.42
2.45	6.04	13.35	25.34	23.75	26.37	30.50	28.21	30.62	26.95	29.01	25.63	27.91	30.66	13.42
2.50	5.70	13.35	25.34	23.75	26.37	30.50	28.21	30.62	26.95	29.01	25.63	27.91	30.66	13.42